<svg xmlns="http://www.w3.org/2000/svg" width="100" height="102.718" viewBox="0 0 100 102.718">
  <g id="icon-2" transform="translate(-5.29 -4.75)">
    <path id="Path_19" data-name="Path 19" d="M61.541,37.15A27.544,27.544,0,0,0,16.91,15.488,27.544,27.544,0,0,0,27.321,57.5V77.533a2.521,2.521,0,0,0,2.521,2.474H45.248V62.314a26.1,26.1,0,0,0,4.669-2.754V57.645a25.631,25.631,0,0,0,5.7-3.5A27.311,27.311,0,0,0,61.541,37.15Z" transform="translate(21.34 17.6)" fill="#005db5" opacity="0.5"/>
    <path id="Path_20" data-name="Path 20" d="M37.3,14.319l-13.4,13.445-6.956-6.956a2.327,2.327,0,0,0-3.315,3.268l8.824,8.917a2.334,2.334,0,0,0,1.634.654,2.428,2.428,0,0,0,1.634-.654L40.805,17.914A2.344,2.344,0,1,0,37.491,14.6Z" transform="translate(28.164 33.615)"/>
    <path id="Path_21" data-name="Path 21" d="M39.544,9.05A29.925,29.925,0,0,0,25.912,65.633V84.307a4.669,4.669,0,0,0,4.669,4.669h4.388a4.9,4.9,0,0,0,8.777,0h4.388A4.669,4.669,0,0,0,52.8,84.307V65.633A29.925,29.925,0,0,0,39.544,9.05ZM30.581,84.167v-7.7H48.414v7.843ZM49.862,62.038a2.288,2.288,0,0,0-1.354,2.1V71.8H30.581V64.139a2.288,2.288,0,0,0-1.354-2.1,25.257,25.257,0,1,1,20.635,0Z" transform="translate(15.746 15.775)"/>
    <path id="Path_22" data-name="Path 22" d="M17.662,15.5H7.624a2.334,2.334,0,1,0,0,4.669H17.662a2.334,2.334,0,1,0,0-4.669Z" transform="translate(0 39.437)"/>
    <path id="Path_23" data-name="Path 23" d="M35.932,15.5H25.894a2.334,2.334,0,0,0,0,4.669H35.932a2.334,2.334,0,1,0,0-4.669Z" transform="translate(67.024 39.437)"/>
    <path id="Path_24" data-name="Path 24" d="M17.834,19.456a2.334,2.334,0,0,0,2.334-2.334V7.084a2.334,2.334,0,0,0-4.669,0V17.122A2.334,2.334,0,0,0,17.834,19.456Z" transform="translate(37.456 0)"/>
    <path id="Path_25" data-name="Path 25" d="M33.589,9.2a2.334,2.334,0,0,0-3.315,0l-7.516,7.516a2.381,2.381,0,0,0,0,3.315,2.334,2.334,0,0,0,1.634.7,2.381,2.381,0,0,0,1.681-.7l7.516-7.516a2.334,2.334,0,0,0,0-3.315Z" transform="translate(61.617 13.801)"/>
    <path id="Path_26" data-name="Path 26" d="M18.82,16.716,11.3,9.2a2.344,2.344,0,1,0-3.315,3.315l7.516,7.61a2.381,2.381,0,0,0,1.681.7,2.334,2.334,0,0,0,1.634-.7,2.381,2.381,0,0,0,0-3.408Z" transform="translate(7.385 13.805)"/>
    <path id="Path_27" data-name="Path 27" d="M29.17,26.5H26.836V24.167a1.167,1.167,0,0,0-2.334,0V26.5H22.167a1.167,1.167,0,1,0,0,2.334H24.5V31.17a1.167,1.167,0,1,0,2.334,0V28.836H29.17a1.167,1.167,0,1,0,0-2.334Z" transform="translate(57.633 66.951)"/>
    <path id="Path_28" data-name="Path 28" d="M27.669,20a4.669,4.669,0,1,0,4.669,4.669A4.669,4.669,0,0,0,27.669,20Zm0,7A2.334,2.334,0,1,1,30,24.669,2.334,2.334,0,0,1,27.669,27Z" transform="translate(64.97 55.945)" fill="#005db5"/>
    <path id="Path_29" data-name="Path 29" d="M13.669,23a4.669,4.669,0,1,0,4.669,4.669A4.669,4.669,0,0,0,13.669,23Zm0,7A2.334,2.334,0,1,1,16,27.669,2.334,2.334,0,0,1,13.669,30Z" transform="translate(13.61 66.951)" fill="#005db5"/>
    <path id="Path_30" data-name="Path 30" d="M16.17,22.5H13.836V20.167a1.167,1.167,0,0,0-2.334,0V22.5H9.167a1.167,1.167,0,1,0,0,2.334H11.5V27.17a1.167,1.167,0,0,0,2.334,0V24.836H16.17a1.167,1.167,0,1,0,0-2.334Z" transform="translate(9.942 52.277)"/>
  </g>
</svg>
